\relax 
\ifx\hyper@anchor\@undefined
\global \let \oldcontentsline\contentsline
\gdef \contentsline#1#2#3#4{\oldcontentsline{#1}{#2}{#3}}
\global \let \oldnewlabel\newlabel
\gdef \newlabel#1#2{\newlabelxx{#1}#2}
\gdef \newlabelxx#1#2#3#4#5#6{\oldnewlabel{#1}{{#2}{#3}}}
\AtEndDocument{\let \contentsline\oldcontentsline
\let \newlabel\oldnewlabel}
\else
\global \let \hyper@last\relax 
\fi

\newlabel{eq:diffoperation}{{1}{2}{Project 2, Schr\"odinger's equation for two electrons in a three-dimensional harmonic oscillator well, deadline October 7 (noon)\relax }{equation.1}{}}
\newlabel{eq:sematrix}{{2}{3}{Project 2, Schr\"odinger's equation for two electrons in a three-dimensional harmonic oscillator well, deadline October 7 (noon)\relax }{equation.2}{}}
\newlabel{eq:matrixse}{{3}{3}{Project 2, Schr\"odinger's equation for two electrons in a three-dimensional harmonic oscillator well, deadline October 7 (noon)\relax }{equation.3}{}}
